{
  "program" : "demo8.p4",
  "__meta__" : {
    "version" : [2, 6],
    "compiler" : "https://github.com/p4lang/p4c"
  },
  "header_types" : [
    {
      "name" : "ethernet_t",
      "id" : 0,
      "fields" : [
        ["dstAddr", 48, false],
        ["srcAddr", 48, false],
        ["etherType", 16, false]
      ]
    },
    {
      "name" : "ipv4_t",
      "id" : 1,
      "fields" : [
        ["version", 4, false],
        ["ihl", 4, false],
        ["diffserv", 8, false],
        ["totalLen", 16, false],
        ["identification", 16, false],
        ["flags", 3, false],
        ["fragOffset", 13, false],
        ["ttl", 8, false],
        ["protocol", 8, false],
        ["hdrChecksum", 16, false],
        ["srcAddr", 32, false],
        ["dstAddr", 32, false]
      ]
    },
    {
      "name" : "ipv6_t",
      "id" : 2,
      "fields" : [
        ["version", 4, false],
        ["trafficClass", 8, false],
        ["flowLabel", 20, false],
        ["payloadLen", 16, false],
        ["nextHdr", 8, false],
        ["hopLimit", 8, false],
        ["srcAddr", 128, false],
        ["dstAddr", 128, false]
      ]
    },
    {
      "name" : "tcp_t",
      "id" : 3,
      "fields" : [
        ["srcPort", 16, false],
        ["dstPort", 16, false],
        ["seqNo", 32, false],
        ["ackNo", 32, false],
        ["dataOffset", 4, false],
        ["res", 4, false],
        ["flags", 8, false],
        ["window", 16, false],
        ["checksum", 16, false],
        ["urgentPtr", 16, false]
      ]
    },
    {
      "name" : "udp_t",
      "id" : 4,
      "fields" : [
        ["srcPort", 16, false],
        ["dstPort", 16, false],
        ["length", 16, false],
        ["checksum", 16, false]
      ]
    },
    {
      "name" : "scalars",
      "id" : 5,
      "fields" : [
        ["tmp_10", 1, 0],
        ["tmp_13", 1, 0],
        ["_padding", 6, false]
      ]
    },
    {
      "name" : "fwd_metadata_t",
      "id" : 6,
      "fields" : [
        ["l2ptr", 24, false],
        ["out_bd", 24, false]
      ]
    },
    {
      "name" : "l3_metadata_t",
      "id" : 7,
      "fields" : [
        ["lkp_outer_l4_sport", 16, false],
        ["lkp_outer_l4_dport", 16, false]
      ]
    },
    {
      "name" : "standard_metadata",
      "id" : 8,
      "fields" : [
        ["ingress_port", 9, false],
        ["egress_spec", 9, false],
        ["egress_port", 9, false],
        ["clone_spec", 32, false],
        ["instance_type", 32, false],
        ["drop", 1, false],
        ["recirculate_port", 16, false],
        ["packet_length", 32, false],
        ["_padding_0", 4, false]
      ]
    }
  ],
  "headers" : [
    {
      "name" : "ethernet",
      "id" : 0,
      "header_type" : "ethernet_t",
      "metadata" : false
    },
    {
      "name" : "ipv4",
      "id" : 1,
      "header_type" : "ipv4_t",
      "metadata" : false
    },
    {
      "name" : "ipv6",
      "id" : 2,
      "header_type" : "ipv6_t",
      "metadata" : false
    },
    {
      "name" : "tcp",
      "id" : 3,
      "header_type" : "tcp_t",
      "metadata" : false
    },
    {
      "name" : "udp",
      "id" : 4,
      "header_type" : "udp_t",
      "metadata" : false
    },
    {
      "name" : "scalars",
      "id" : 5,
      "header_type" : "scalars",
      "metadata" : true,
      "pi_omit" : true
    },
    {
      "name" : "fwd_metadata",
      "id" : 6,
      "header_type" : "fwd_metadata_t",
      "metadata" : true
    },
    {
      "name" : "l3_metadata",
      "id" : 7,
      "header_type" : "l3_metadata_t",
      "metadata" : true
    },
    {
      "name" : "standard_metadata",
      "id" : 8,
      "header_type" : "standard_metadata",
      "metadata" : true
    }
  ],
  "header_stacks" : [],
  "field_lists" : [],
  "errors" : [
    ["ParserTimeout", 7],
    ["HeaderTooShort", 6],
    ["OverwritingHeader", 5],
    ["StackOutOfBounds", 4],
    ["NoMatch", 3],
    ["PacketTooShort", 2],
    ["NoError", 1]
  ],
  "enums" : [],
  "parsers" : [
    {
      "name" : "parser",
      "id" : 0,
      "init_state" : "start",
      "parse_states" : [
        {
          "name" : "parse_ethernet",
          "id" : 0,
          "parser_ops" : [
            {
              "parameters" : [
                {
                  "type" : "regular",
                  "value" : "ethernet"
                }
              ],
              "op" : "extract"
            }
          ],
          "transitions" : [
            {
              "value" : "0x0800",
              "mask" : null,
              "next_state" : "parse_ipv4"
            },
            {
              "value" : "0x86dd",
              "mask" : null,
              "next_state" : "parse_ipv6"
            },
            {
              "value" : "default",
              "mask" : null,
              "next_state" : null
            }
          ],
          "transition_key" : [
            {
              "type" : "field",
              "value" : ["ethernet", "etherType"]
            }
          ]
        },
        {
          "name" : "parse_ipv4",
          "id" : 1,
          "parser_ops" : [
            {
              "parameters" : [
                {
                  "type" : "regular",
                  "value" : "ipv4"
                }
              ],
              "op" : "extract"
            }
          ],
          "transitions" : [
            {
              "value" : "0x00000506",
              "mask" : null,
              "next_state" : "parse_tcp"
            },
            {
              "value" : "0x00000511",
              "mask" : null,
              "next_state" : "parse_udp"
            },
            {
              "value" : "default",
              "mask" : null,
              "next_state" : null
            }
          ],
          "transition_key" : [
            {
              "type" : "field",
              "value" : ["ipv4", "fragOffset"]
            },
            {
              "type" : "field",
              "value" : ["ipv4", "ihl"]
            },
            {
              "type" : "field",
              "value" : ["ipv4", "protocol"]
            }
          ]
        },
        {
          "name" : "parse_ipv6",
          "id" : 2,
          "parser_ops" : [
            {
              "parameters" : [
                {
                  "type" : "regular",
                  "value" : "ipv6"
                }
              ],
              "op" : "extract"
            }
          ],
          "transitions" : [
            {
              "value" : "0x06",
              "mask" : null,
              "next_state" : "parse_tcp"
            },
            {
              "value" : "0x11",
              "mask" : null,
              "next_state" : "parse_udp"
            },
            {
              "value" : "default",
              "mask" : null,
              "next_state" : null
            }
          ],
          "transition_key" : [
            {
              "type" : "field",
              "value" : ["ipv6", "nextHdr"]
            }
          ]
        },
        {
          "name" : "parse_tcp",
          "id" : 3,
          "parser_ops" : [
            {
              "parameters" : [
                {
                  "type" : "regular",
                  "value" : "tcp"
                }
              ],
              "op" : "extract"
            },
            {
              "parameters" : [
                {
                  "type" : "field",
                  "value" : ["l3_metadata", "lkp_outer_l4_sport"]
                },
                {
                  "type" : "field",
                  "value" : ["tcp", "srcPort"]
                }
              ],
              "op" : "set"
            },
            {
              "parameters" : [
                {
                  "type" : "field",
                  "value" : ["l3_metadata", "lkp_outer_l4_dport"]
                },
                {
                  "type" : "field",
                  "value" : ["tcp", "dstPort"]
                }
              ],
              "op" : "set"
            }
          ],
          "transitions" : [
            {
              "value" : "default",
              "mask" : null,
              "next_state" : null
            }
          ],
          "transition_key" : []
        },
        {
          "name" : "parse_udp",
          "id" : 4,
          "parser_ops" : [
            {
              "parameters" : [
                {
                  "type" : "regular",
                  "value" : "udp"
                }
              ],
              "op" : "extract"
            },
            {
              "parameters" : [
                {
                  "type" : "field",
                  "value" : ["l3_metadata", "lkp_outer_l4_sport"]
                },
                {
                  "type" : "field",
                  "value" : ["udp", "srcPort"]
                }
              ],
              "op" : "set"
            },
            {
              "parameters" : [
                {
                  "type" : "field",
                  "value" : ["l3_metadata", "lkp_outer_l4_dport"]
                },
                {
                  "type" : "field",
                  "value" : ["udp", "dstPort"]
                }
              ],
              "op" : "set"
            }
          ],
          "transitions" : [
            {
              "value" : "default",
              "mask" : null,
              "next_state" : null
            }
          ],
          "transition_key" : []
        },
        {
          "name" : "start",
          "id" : 5,
          "parser_ops" : [],
          "transitions" : [
            {
              "value" : "default",
              "mask" : null,
              "next_state" : "parse_ethernet"
            }
          ],
          "transition_key" : []
        }
      ]
    }
  ],
  "deparsers" : [
    {
      "name" : "deparser",
      "id" : 0,
      "order" : ["ethernet", "ipv4", "tcp"]
    }
  ],
  "meter_arrays" : [],
  "counter_arrays" : [],
  "register_arrays" : [],
  "calculations" : [],
  "learn_lists" : [],
  "actions" : [
    {
      "name" : "act_1",
      "id" : 0,
      "runtime_data" : [],
      "primitives" : [
        {
          "op" : "modify_field",
          "parameters" : [
            {
              "type" : "field",
              "value" : ["ethernet", "dstAddr"]
            },
            {
              "type" : "expression",
              "value" : {
                "type" : "expression",
                "value" : {
                  "op" : "&",
                  "left" : {
                    "type" : "expression",
                    "value" : {
                      "op" : "+",
                      "left" : {
                        "type" : "field",
                        "value" : ["ethernet", "srcAddr"]
                      },
                      "right" : {
                        "type" : "hexstr",
                        "value" : "0x000000000001"
                      }
                    }
                  },
                  "right" : {
                    "type" : "hexstr",
                    "value" : "0xffffffffffff"
                  }
                }
              }
            }
          ]
        }
      ]
    },
    {
      "name" : "rewrite_mac",
      "id" : 1,
      "runtime_data" : [
        {
          "name" : "smac",
          "bitwidth" : 48
        }
      ],
      "primitives" : [
        {
          "op" : "modify_field",
          "parameters" : [
            {
              "type" : "field",
              "value" : ["ethernet", "srcAddr"]
            },
            {
              "type" : "runtime_data",
              "value" : 0
            }
          ]
        }
      ]
    },
    {
      "name" : "NoAction",
      "id" : 2,
      "runtime_data" : [],
      "primitives" : []
    },
    {
      "name" : "act_0",
      "id" : 3,
      "runtime_data" : [],
      "primitives" : [
        {
          "op" : "modify_field",
          "parameters" : [
            {
              "type" : "field",
              "value" : ["scalars", "tmp_13"]
            },
            {
              "type" : "expression",
              "value" : {
                "type" : "expression",
                "value" : {
                  "op" : "b2d",
                  "left" : null,
                  "right" : {
                    "type" : "expression",
                    "value" : {
                      "op" : ">",
                      "left" : {
                        "type" : "field",
                        "value" : ["ethernet", "dstAddr"]
                      },
                      "right" : {
                        "type" : "hexstr",
                        "value" : "0x000000000002"
                      }
                    }
                  }
                }
              }
            }
          ]
        }
      ]
    },
    {
      "name" : "act",
      "id" : 4,
      "runtime_data" : [],
      "primitives" : [
        {
          "op" : "modify_field",
          "parameters" : [
            {
              "type" : "field",
              "value" : ["scalars", "tmp_13"]
            },
            {
              "type" : "expression",
              "value" : {
                "type" : "expression",
                "value" : {
                  "op" : "b2d",
                  "left" : null,
                  "right" : {
                    "type" : "bool",
                    "value" : false
                  }
                }
              }
            }
          ]
        }
      ]
    },
    {
      "name" : "act_5",
      "id" : 5,
      "runtime_data" : [],
      "primitives" : [
        {
          "op" : "modify_field",
          "parameters" : [
            {
              "type" : "field",
              "value" : ["ethernet", "dstAddr"]
            },
            {
              "type" : "expression",
              "value" : {
                "type" : "expression",
                "value" : {
                  "op" : "&",
                  "left" : {
                    "type" : "expression",
                    "value" : {
                      "op" : "+",
                      "left" : {
                        "type" : "field",
                        "value" : ["ethernet", "srcAddr"]
                      },
                      "right" : {
                        "type" : "hexstr",
                        "value" : "0x000000000003"
                      }
                    }
                  },
                  "right" : {
                    "type" : "hexstr",
                    "value" : "0xffffffffffff"
                  }
                }
              }
            }
          ]
        }
      ]
    },
    {
      "name" : "act_4",
      "id" : 6,
      "runtime_data" : [],
      "primitives" : [
        {
          "op" : "modify_field",
          "parameters" : [
            {
              "type" : "field",
              "value" : ["ethernet", "dstAddr"]
            },
            {
              "type" : "expression",
              "value" : {
                "type" : "expression",
                "value" : {
                  "op" : "&",
                  "left" : {
                    "type" : "expression",
                    "value" : {
                      "op" : "+",
                      "left" : {
                        "type" : "field",
                        "value" : ["ethernet", "srcAddr"]
                      },
                      "right" : {
                        "type" : "hexstr",
                        "value" : "0x000000000002"
                      }
                    }
                  },
                  "right" : {
                    "type" : "hexstr",
                    "value" : "0xffffffffffff"
                  }
                }
              }
            }
          ]
        }
      ]
    },
    {
      "name" : "act_3",
      "id" : 7,
      "runtime_data" : [],
      "primitives" : [
        {
          "op" : "modify_field",
          "parameters" : [
            {
              "type" : "field",
              "value" : ["scalars", "tmp_10"]
            },
            {
              "type" : "expression",
              "value" : {
                "type" : "expression",
                "value" : {
                  "op" : "b2d",
                  "left" : null,
                  "right" : {
                    "type" : "expression",
                    "value" : {
                      "op" : "not",
                      "left" : null,
                      "right" : {
                        "type" : "expression",
                        "value" : {
                          "op" : "valid",
                          "left" : null,
                          "right" : {
                            "type" : "header",
                            "value" : "ipv6"
                          }
                        }
                      }
                    }
                  }
                }
              }
            }
          ]
        }
      ]
    },
    {
      "name" : "act_2",
      "id" : 8,
      "runtime_data" : [],
      "primitives" : [
        {
          "op" : "modify_field",
          "parameters" : [
            {
              "type" : "field",
              "value" : ["scalars", "tmp_10"]
            },
            {
              "type" : "expression",
              "value" : {
                "type" : "expression",
                "value" : {
                  "op" : "b2d",
                  "left" : null,
                  "right" : {
                    "type" : "bool",
                    "value" : false
                  }
                }
              }
            }
          ]
        }
      ]
    },
    {
      "name" : "set_l2ptr",
      "id" : 9,
      "runtime_data" : [
        {
          "name" : "l2ptr",
          "bitwidth" : 24
        }
      ],
      "primitives" : [
        {
          "op" : "modify_field",
          "parameters" : [
            {
              "type" : "field",
              "value" : ["fwd_metadata", "l2ptr"]
            },
            {
              "type" : "runtime_data",
              "value" : 0
            }
          ]
        }
      ]
    },
    {
      "name" : "NoAction",
      "id" : 10,
      "runtime_data" : [],
      "primitives" : []
    }
  ],
  "pipelines" : [
    {
      "name" : "ingress",
      "id" : 0,
      "init_table" : "node_2",
      "tables" : [
        {
          "name" : "tbl_act",
          "id" : 0,
          "key" : [],
          "match_type" : "exact",
          "type" : "simple",
          "max_size" : 1024,
          "with_counters" : false,
          "support_timeout" : false,
          "direct_meters" : null,
          "action_ids" : [4],
          "actions" : ["act"],
          "base_default_next" : "node_5",
          "next_tables" : {
            "act" : "node_5"
          },
          "default_entry" : {
            "action_id" : 4,
            "action_const" : false,
            "action_data" : [],
            "action_entry_const" : true
          }
        },
        {
          "name" : "tbl_act_0",
          "id" : 1,
          "key" : [],
          "match_type" : "exact",
          "type" : "simple",
          "max_size" : 1024,
          "with_counters" : false,
          "support_timeout" : false,
          "direct_meters" : null,
          "action_ids" : [3],
          "actions" : ["act_0"],
          "base_default_next" : "node_5",
          "next_tables" : {
            "act_0" : "node_5"
          },
          "default_entry" : {
            "action_id" : 3,
            "action_const" : false,
            "action_data" : [],
            "action_entry_const" : true
          }
        },
        {
          "name" : "tbl_act_1",
          "id" : 2,
          "key" : [],
          "match_type" : "exact",
          "type" : "simple",
          "max_size" : 1024,
          "with_counters" : false,
          "support_timeout" : false,
          "direct_meters" : null,
          "action_ids" : [0],
          "actions" : ["act_1"],
          "base_default_next" : "ipv4_da_lpm",
          "next_tables" : {
            "act_1" : "ipv4_da_lpm"
          },
          "default_entry" : {
            "action_id" : 0,
            "action_const" : false,
            "action_data" : [],
            "action_entry_const" : true
          }
        },
        {
          "name" : "tbl_act_2",
          "id" : 3,
          "key" : [],
          "match_type" : "exact",
          "type" : "simple",
          "max_size" : 1024,
          "with_counters" : false,
          "support_timeout" : false,
          "direct_meters" : null,
          "action_ids" : [8],
          "actions" : ["act_2"],
          "base_default_next" : "node_11",
          "next_tables" : {
            "act_2" : "node_11"
          },
          "default_entry" : {
            "action_id" : 8,
            "action_const" : false,
            "action_data" : [],
            "action_entry_const" : true
          }
        },
        {
          "name" : "tbl_act_3",
          "id" : 4,
          "key" : [],
          "match_type" : "exact",
          "type" : "simple",
          "max_size" : 1024,
          "with_counters" : false,
          "support_timeout" : false,
          "direct_meters" : null,
          "action_ids" : [7],
          "actions" : ["act_3"],
          "base_default_next" : "node_11",
          "next_tables" : {
            "act_3" : "node_11"
          },
          "default_entry" : {
            "action_id" : 7,
            "action_const" : false,
            "action_data" : [],
            "action_entry_const" : true
          }
        },
        {
          "name" : "tbl_act_4",
          "id" : 5,
          "key" : [],
          "match_type" : "exact",
          "type" : "simple",
          "max_size" : 1024,
          "with_counters" : false,
          "support_timeout" : false,
          "direct_meters" : null,
          "action_ids" : [6],
          "actions" : ["act_4"],
          "base_default_next" : "ipv4_da_lpm",
          "next_tables" : {
            "act_4" : "ipv4_da_lpm"
          },
          "default_entry" : {
            "action_id" : 6,
            "action_const" : false,
            "action_data" : [],
            "action_entry_const" : true
          }
        },
        {
          "name" : "tbl_act_5",
          "id" : 6,
          "key" : [],
          "match_type" : "exact",
          "type" : "simple",
          "max_size" : 1024,
          "with_counters" : false,
          "support_timeout" : false,
          "direct_meters" : null,
          "action_ids" : [5],
          "actions" : ["act_5"],
          "base_default_next" : "ipv4_da_lpm",
          "next_tables" : {
            "act_5" : "ipv4_da_lpm"
          },
          "default_entry" : {
            "action_id" : 5,
            "action_const" : false,
            "action_data" : [],
            "action_entry_const" : true
          }
        },
        {
          "name" : "ipv4_da_lpm",
          "id" : 7,
          "key" : [
            {
              "match_type" : "exact",
              "target" : ["ipv4", "dstAddr"],
              "mask" : null
            },
            {
              "match_type" : "exact",
              "target" : ["tcp", "dstPort"],
              "mask" : null
            }
          ],
          "match_type" : "exact",
          "type" : "simple",
          "max_size" : 1024,
          "with_counters" : false,
          "support_timeout" : false,
          "direct_meters" : null,
          "action_ids" : [9, 10],
          "actions" : ["set_l2ptr", "NoAction"],
          "base_default_next" : null,
          "next_tables" : {
            "set_l2ptr" : null,
            "NoAction" : null
          },
          "default_entry" : {
            "action_id" : 10,
            "action_const" : false,
            "action_data" : [],
            "action_entry_const" : false
          }
        }
      ],
      "action_profiles" : [],
      "conditionals" : [
        {
          "name" : "node_2",
          "id" : 0,
          "expression" : {
            "type" : "expression",
            "value" : {
              "op" : "not",
              "left" : null,
              "right" : {
                "type" : "expression",
                "value" : {
                  "op" : "==",
                  "left" : {
                    "type" : "field",
                    "value" : ["ethernet", "srcAddr"]
                  },
                  "right" : {
                    "type" : "hexstr",
                    "value" : "0x00000001e240"
                  }
                }
              }
            }
          },
          "true_next" : "tbl_act",
          "false_next" : "tbl_act_0"
        },
        {
          "name" : "node_5",
          "id" : 1,
          "expression" : {
            "type" : "expression",
            "value" : {
              "op" : "d2b",
              "left" : null,
              "right" : {
                "type" : "field",
                "value" : ["scalars", "tmp_13"]
              }
            }
          },
          "true_next" : "node_6",
          "false_next" : "ipv4_da_lpm"
        },
        {
          "name" : "node_6",
          "id" : 2,
          "expression" : {
            "type" : "expression",
            "value" : {
              "op" : "!=",
              "left" : {
                "type" : "field",
                "value" : ["ethernet", "srcAddr"]
              },
              "right" : {
                "type" : "field",
                "value" : ["ethernet", "dstAddr"]
              }
            }
          },
          "true_next" : "tbl_act_1",
          "false_next" : "node_8"
        },
        {
          "name" : "node_8",
          "id" : 3,
          "expression" : {
            "type" : "expression",
            "value" : {
              "op" : "not",
              "left" : null,
              "right" : {
                "type" : "expression",
                "value" : {
                  "op" : "valid",
                  "left" : null,
                  "right" : {
                    "type" : "header",
                    "value" : "ipv4"
                  }
                }
              }
            }
          },
          "true_next" : "tbl_act_2",
          "false_next" : "tbl_act_3"
        },
        {
          "name" : "node_11",
          "id" : 4,
          "expression" : {
            "type" : "expression",
            "value" : {
              "op" : "d2b",
              "left" : null,
              "right" : {
                "type" : "field",
                "value" : ["scalars", "tmp_10"]
              }
            }
          },
          "true_next" : "tbl_act_4",
          "false_next" : "tbl_act_5"
        }
      ]
    },
    {
      "name" : "egress",
      "id" : 1,
      "init_table" : "send_frame",
      "tables" : [
        {
          "name" : "send_frame",
          "id" : 8,
          "key" : [
            {
              "match_type" : "exact",
              "target" : ["ipv4", "srcAddr"],
              "mask" : null
            }
          ],
          "match_type" : "exact",
          "type" : "simple",
          "max_size" : 256,
          "with_counters" : false,
          "support_timeout" : false,
          "direct_meters" : null,
          "action_ids" : [1, 2],
          "actions" : ["rewrite_mac", "NoAction"],
          "base_default_next" : null,
          "next_tables" : {
            "rewrite_mac" : null,
            "NoAction" : null
          },
          "default_entry" : {
            "action_id" : 2,
            "action_const" : false,
            "action_data" : [],
            "action_entry_const" : false
          }
        }
      ],
      "action_profiles" : [],
      "conditionals" : []
    }
  ],
  "checksums" : [],
  "force_arith" : [
    ["standard_metadata", "ingress_port"],
    ["standard_metadata", "egress_spec"],
    ["standard_metadata", "egress_port"],
    ["standard_metadata", "clone_spec"],
    ["standard_metadata", "instance_type"],
    ["standard_metadata", "drop"],
    ["standard_metadata", "recirculate_port"],
    ["standard_metadata", "packet_length"]
  ]
}