{
  "program" : "p4_programs/demo9.p4",
  "__meta__" : {
    "version" : [2, 7],
    "compiler" : "https://github.com/p4lang/p4c"
  },
  "header_types" : [
    {
      "name" : "scalars_0",
      "id" : 0,
      "fields" : []
    },
    {
      "name" : "ethernet_t",
      "id" : 1,
      "fields" : [
        ["dstAddr", 48, false],
        ["srcAddr", 48, false],
        ["etherType", 16, false]
      ]
    },
    {
      "name" : "ipv4_t",
      "id" : 2,
      "fields" : [
        ["version", 4, false],
        ["ihl", 4, false],
        ["diffserv", 8, false],
        ["totalLen", 16, false],
        ["identification", 16, false],
        ["flags", 3, false],
        ["fragOffset", 13, false],
        ["ttl", 8, false],
        ["protocol", 8, false],
        ["hdrChecksum", 16, false],
        ["srcAddr", 32, false],
        ["dstAddr", 32, false]
      ]
    },
    {
      "name" : "ipv6_t",
      "id" : 3,
      "fields" : [
        ["version", 4, false],
        ["trafficClass", 8, false],
        ["flowLabel", 20, false],
        ["payloadLen", 16, false],
        ["nextHdr", 8, false],
        ["hopLimit", 8, false],
        ["srcAddr", 128, false],
        ["dstAddr", 128, false]
      ]
    },
    {
      "name" : "tcp_t",
      "id" : 4,
      "fields" : [
        ["srcPort", 16, false],
        ["dstPort", 16, false],
        ["seqNo", 32, false],
        ["ackNo", 32, false],
        ["dataOffset", 4, false],
        ["res", 4, false],
        ["flags", 8, false],
        ["window", 16, false],
        ["checksum", 16, false],
        ["urgentPtr", 16, false]
      ]
    },
    {
      "name" : "udp_t",
      "id" : 5,
      "fields" : [
        ["srcPort", 16, false],
        ["dstPort", 16, false],
        ["length", 16, false],
        ["checksum", 16, false]
      ]
    },
    {
      "name" : "fwd_metadata_t",
      "id" : 6,
      "fields" : [
        ["l2ptr", 24, false],
        ["out_bd", 24, false]
      ]
    },
    {
      "name" : "l3_metadata_t",
      "id" : 7,
      "fields" : [
        ["lkp_outer_l4_sport", 16, false],
        ["lkp_outer_l4_dport", 16, false]
      ]
    },
    {
      "name" : "standard_metadata",
      "id" : 8,
      "fields" : [
        ["ingress_port", 9, false],
        ["egress_spec", 9, false],
        ["egress_port", 9, false],
        ["clone_spec", 32, false],
        ["instance_type", 32, false],
        ["drop", 1, false],
        ["recirculate_port", 16, false],
        ["packet_length", 32, false],
        ["enq_timestamp", 32, false],
        ["enq_qdepth", 19, false],
        ["deq_timedelta", 32, false],
        ["deq_qdepth", 19, false],
        ["ingress_global_timestamp", 48, false],
        ["lf_field_list", 32, false],
        ["mcast_grp", 16, false],
        ["resubmit_flag", 1, false],
        ["egress_rid", 16, false],
        ["_padding", 5, false]
      ]
    }
  ],
  "headers" : [
    {
      "name" : "scalars",
      "id" : 0,
      "header_type" : "scalars_0",
      "metadata" : true,
      "pi_omit" : true
    },
    {
      "name" : "standard_metadata",
      "id" : 1,
      "header_type" : "standard_metadata",
      "metadata" : true,
      "pi_omit" : true
    },
    {
      "name" : "ethernet",
      "id" : 2,
      "header_type" : "ethernet_t",
      "metadata" : false,
      "pi_omit" : true
    },
    {
      "name" : "ipv4",
      "id" : 3,
      "header_type" : "ipv4_t",
      "metadata" : false,
      "pi_omit" : true
    },
    {
      "name" : "ipv6",
      "id" : 4,
      "header_type" : "ipv6_t",
      "metadata" : false,
      "pi_omit" : true
    },
    {
      "name" : "tcp",
      "id" : 5,
      "header_type" : "tcp_t",
      "metadata" : false,
      "pi_omit" : true
    },
    {
      "name" : "udp",
      "id" : 6,
      "header_type" : "udp_t",
      "metadata" : false,
      "pi_omit" : true
    },
    {
      "name" : "fwd_metadata",
      "id" : 7,
      "header_type" : "fwd_metadata_t",
      "metadata" : true,
      "pi_omit" : true
    },
    {
      "name" : "l3_metadata",
      "id" : 8,
      "header_type" : "l3_metadata_t",
      "metadata" : true,
      "pi_omit" : true
    }
  ],
  "header_stacks" : [],
  "header_union_types" : [],
  "header_unions" : [],
  "header_union_stacks" : [],
  "field_lists" : [],
  "errors" : [
    ["NoError", 1],
    ["PacketTooShort", 2],
    ["NoMatch", 3],
    ["StackOutOfBounds", 4],
    ["HeaderTooShort", 5],
    ["ParserTimeout", 6],
    ["BadIPv6Version", 7]
  ],
  "enums" : [],
  "parsers" : [
    {
      "name" : "parser",
      "id" : 0,
      "init_state" : "start",
      "parse_states" : [
        {
          "name" : "parse_ethernet",
          "id" : 0,
          "parser_ops" : [
            {
              "parameters" : [
                {
                  "type" : "regular",
                  "value" : "ethernet"
                }
              ],
              "op" : "extract"
            }
          ],
          "transitions" : [
            {
              "value" : "0x0800",
              "mask" : null,
              "next_state" : "parse_ipv4"
            },
            {
              "value" : "0x86dd",
              "mask" : null,
              "next_state" : "parse_ipv6"
            },
            {
              "value" : "default",
              "mask" : null,
              "next_state" : null
            }
          ],
          "transition_key" : [
            {
              "type" : "field",
              "value" : ["ethernet", "etherType"]
            }
          ]
        },
        {
          "name" : "parse_ipv4",
          "id" : 1,
          "parser_ops" : [
            {
              "parameters" : [
                {
                  "type" : "regular",
                  "value" : "ipv4"
                }
              ],
              "op" : "extract"
            }
          ],
          "transitions" : [
            {
              "value" : "0x00000506",
              "mask" : null,
              "next_state" : "parse_tcp"
            },
            {
              "value" : "0x00000511",
              "mask" : null,
              "next_state" : "parse_udp"
            },
            {
              "value" : "default",
              "mask" : null,
              "next_state" : null
            }
          ],
          "transition_key" : [
            {
              "type" : "field",
              "value" : ["ipv4", "fragOffset"]
            },
            {
              "type" : "field",
              "value" : ["ipv4", "ihl"]
            },
            {
              "type" : "field",
              "value" : ["ipv4", "protocol"]
            }
          ]
        },
        {
          "name" : "parse_ipv6",
          "id" : 2,
          "parser_ops" : [
            {
              "parameters" : [
                {
                  "type" : "regular",
                  "value" : "ipv6"
                }
              ],
              "op" : "extract"
            }
          ],
          "transitions" : [
            {
              "value" : "0x06",
              "mask" : null,
              "next_state" : "parse_tcp"
            },
            {
              "value" : "0x11",
              "mask" : null,
              "next_state" : "parse_udp"
            },
            {
              "value" : "default",
              "mask" : null,
              "next_state" : null
            }
          ],
          "transition_key" : [
            {
              "type" : "field",
              "value" : ["ipv6", "nextHdr"]
            }
          ]
        },
        {
          "name" : "parse_tcp",
          "id" : 3,
          "parser_ops" : [
            {
              "parameters" : [
                {
                  "type" : "regular",
                  "value" : "tcp"
                }
              ],
              "op" : "extract"
            },
            {
              "parameters" : [
                {
                  "type" : "field",
                  "value" : ["l3_metadata", "lkp_outer_l4_sport"]
                },
                {
                  "type" : "field",
                  "value" : ["tcp", "srcPort"]
                }
              ],
              "op" : "set"
            },
            {
              "parameters" : [
                {
                  "type" : "field",
                  "value" : ["l3_metadata", "lkp_outer_l4_dport"]
                },
                {
                  "type" : "field",
                  "value" : ["tcp", "dstPort"]
                }
              ],
              "op" : "set"
            }
          ],
          "transitions" : [
            {
              "value" : "default",
              "mask" : null,
              "next_state" : null
            }
          ],
          "transition_key" : []
        },
        {
          "name" : "parse_udp",
          "id" : 4,
          "parser_ops" : [
            {
              "parameters" : [
                {
                  "type" : "regular",
                  "value" : "udp"
                }
              ],
              "op" : "extract"
            },
            {
              "parameters" : [
                {
                  "type" : "field",
                  "value" : ["l3_metadata", "lkp_outer_l4_sport"]
                },
                {
                  "type" : "field",
                  "value" : ["udp", "srcPort"]
                }
              ],
              "op" : "set"
            },
            {
              "parameters" : [
                {
                  "type" : "field",
                  "value" : ["l3_metadata", "lkp_outer_l4_dport"]
                },
                {
                  "type" : "field",
                  "value" : ["udp", "dstPort"]
                }
              ],
              "op" : "set"
            }
          ],
          "transitions" : [
            {
              "value" : "default",
              "mask" : null,
              "next_state" : null
            }
          ],
          "transition_key" : []
        },
        {
          "name" : "start",
          "id" : 5,
          "parser_ops" : [],
          "transitions" : [
            {
              "value" : "default",
              "mask" : null,
              "next_state" : "parse_ethernet"
            }
          ],
          "transition_key" : []
        }
      ]
    }
  ],
  "deparsers" : [
    {
      "name" : "deparser",
      "id" : 0,
      "source_info" : {
        "filename" : "p4_programs/demo9.p4",
        "line" : 163,
        "column" : 8,
        "source_fragment" : "DeparserImpl"
      },
      "order" : ["ethernet", "ipv4", "tcp"]
    }
  ],
  "meter_arrays" : [],
  "counter_arrays" : [],
  "register_arrays" : [],
  "calculations" : [],
  "learn_lists" : [],
  "actions" : [
    {
      "name" : "act",
      "id" : 0,
      "runtime_data" : [],
      "primitives" : [
        {
          "op" : "assign",
          "parameters" : [
            {
              "type" : "field",
              "value" : ["ethernet", "dstAddr"]
            },
            {
              "type" : "expression",
              "value" : {
                "type" : "expression",
                "value" : {
                  "op" : "&",
                  "left" : {
                    "type" : "expression",
                    "value" : {
                      "op" : "+",
                      "left" : {
                        "type" : "field",
                        "value" : ["ethernet", "srcAddr"]
                      },
                      "right" : {
                        "type" : "hexstr",
                        "value" : "0x000000000001"
                      }
                    }
                  },
                  "right" : {
                    "type" : "hexstr",
                    "value" : "0xffffffffffff"
                  }
                }
              }
            }
          ],
          "source_info" : {
            "filename" : "p4_programs/demo9.p4",
            "line" : 156,
            "column" : 12,
            "source_fragment" : "hdr.ethernet.dstAddr = hdr.ethernet.srcAddr + 1"
          }
        }
      ]
    },
    {
      "name" : "act_0",
      "id" : 1,
      "runtime_data" : [],
      "primitives" : [
        {
          "op" : "assign",
          "parameters" : [
            {
              "type" : "field",
              "value" : ["ethernet", "dstAddr"]
            },
            {
              "type" : "expression",
              "value" : {
                "type" : "expression",
                "value" : {
                  "op" : "&",
                  "left" : {
                    "type" : "expression",
                    "value" : {
                      "op" : "+",
                      "left" : {
                        "type" : "field",
                        "value" : ["ethernet", "srcAddr"]
                      },
                      "right" : {
                        "type" : "hexstr",
                        "value" : "0x000000000003"
                      }
                    }
                  },
                  "right" : {
                    "type" : "hexstr",
                    "value" : "0xffffffffffff"
                  }
                }
              }
            }
          ],
          "source_info" : {
            "filename" : "p4_programs/demo9.p4",
            "line" : 158,
            "column" : 12,
            "source_fragment" : "hdr.ethernet.dstAddr = hdr.ethernet.srcAddr + 3"
          }
        }
      ]
    }
  ],
  "pipelines" : [
    {
      "name" : "ingress",
      "id" : 0,
      "source_info" : {
        "filename" : "p4_programs/demo9.p4",
        "line" : 148,
        "column" : 8,
        "source_fragment" : "ingress"
      },
      "init_table" : "node_2",
      "tables" : [
        {
          "name" : "tbl_act",
          "id" : 0,
          "key" : [],
          "match_type" : "exact",
          "type" : "simple",
          "max_size" : 1024,
          "with_counters" : false,
          "support_timeout" : false,
          "direct_meters" : null,
          "action_ids" : [0],
          "actions" : ["act"],
          "base_default_next" : null,
          "next_tables" : {
            "act" : null
          },
          "default_entry" : {
            "action_id" : 0,
            "action_const" : true,
            "action_data" : [],
            "action_entry_const" : true
          }
        },
        {
          "name" : "tbl_act_0",
          "id" : 1,
          "key" : [],
          "match_type" : "exact",
          "type" : "simple",
          "max_size" : 1024,
          "with_counters" : false,
          "support_timeout" : false,
          "direct_meters" : null,
          "action_ids" : [1],
          "actions" : ["act_0"],
          "base_default_next" : null,
          "next_tables" : {
            "act_0" : null
          },
          "default_entry" : {
            "action_id" : 1,
            "action_const" : true,
            "action_data" : [],
            "action_entry_const" : true
          }
        }
      ],
      "action_profiles" : [],
      "conditionals" : [
        {
          "name" : "node_2",
          "id" : 0,
          "source_info" : {
            "filename" : "p4_programs/demo9.p4",
            "line" : 150,
            "column" : 12,
            "source_fragment" : "hdr.ipv6.isValid()"
          },
          "expression" : {
            "type" : "expression",
            "value" : {
              "op" : "==",
              "left" : {
                "type" : "field",
                "value" : ["ipv6", "$valid$"]
              },
              "right" : {
                "type" : "hexstr",
                "value" : "0x01"
              }
            }
          },
          "true_next" : "node_3",
          "false_next" : "node_4"
        },
        {
          "name" : "node_3",
          "id" : 1,
          "source_info" : {
            "filename" : "p4_programs/demo9.p4",
            "line" : 151,
            "column" : 16,
            "source_fragment" : "hdr.ipv6.version != 6"
          },
          "expression" : {
            "type" : "expression",
            "value" : {
              "op" : "!=",
              "left" : {
                "type" : "field",
                "value" : ["ipv6", "version"]
              },
              "right" : {
                "type" : "hexstr",
                "value" : "0x06"
              }
            }
          },
          "true_next" : null,
          "false_next" : "node_4"
        },
        {
          "name" : "node_4",
          "id" : 2,
          "source_info" : {
            "filename" : "p4_programs/demo9.p4",
            "line" : 155,
            "column" : 12,
            "source_fragment" : "hdr.ethernet.srcAddr == 123456"
          },
          "expression" : {
            "type" : "expression",
            "value" : {
              "op" : "==",
              "left" : {
                "type" : "field",
                "value" : ["ethernet", "srcAddr"]
              },
              "right" : {
                "type" : "hexstr",
                "value" : "0x00000001e240"
              }
            }
          },
          "true_next" : "tbl_act",
          "false_next" : "tbl_act_0"
        }
      ]
    },
    {
      "name" : "egress",
      "id" : 1,
      "source_info" : {
        "filename" : "p4_programs/demo9.p4",
        "line" : 143,
        "column" : 8,
        "source_fragment" : "egress"
      },
      "init_table" : null,
      "tables" : [],
      "action_profiles" : [],
      "conditionals" : []
    }
  ],
  "checksums" : [],
  "force_arith" : [],
  "extern_instances" : [],
  "field_aliases" : [
    [
      "queueing_metadata.enq_timestamp",
      ["standard_metadata", "enq_timestamp"]
    ],
    [
      "queueing_metadata.enq_qdepth",
      ["standard_metadata", "enq_qdepth"]
    ],
    [
      "queueing_metadata.deq_timedelta",
      ["standard_metadata", "deq_timedelta"]
    ],
    [
      "queueing_metadata.deq_qdepth",
      ["standard_metadata", "deq_qdepth"]
    ],
    [
      "intrinsic_metadata.ingress_global_timestamp",
      ["standard_metadata", "ingress_global_timestamp"]
    ],
    [
      "intrinsic_metadata.lf_field_list",
      ["standard_metadata", "lf_field_list"]
    ],
    [
      "intrinsic_metadata.mcast_grp",
      ["standard_metadata", "mcast_grp"]
    ],
    [
      "intrinsic_metadata.resubmit_flag",
      ["standard_metadata", "resubmit_flag"]
    ],
    [
      "intrinsic_metadata.egress_rid",
      ["standard_metadata", "egress_rid"]
    ]
  ]
}