{
  "program" : "p4_programs/demo1b.p4",
  "__meta__" : {
    "version" : [2, 7],
    "compiler" : "https://github.com/p4lang/p4c"
  },
  "header_types" : [
    {
      "name" : "scalars_0",
      "id" : 0,
      "fields" : [
        ["acl_drop", 1, false],
        ["_padding_0", 7, false]
      ]
    },
    {
      "name" : "ethernet_t",
      "id" : 1,
      "fields" : [
        ["dstAddr", 48, false],
        ["srcAddr", 48, false],
        ["etherType", 16, false]
      ]
    },
    {
      "name" : "ipv4_t",
      "id" : 2,
      "fields" : [
        ["version", 4, false],
        ["ihl", 4, false],
        ["diffserv", 8, false],
        ["totalLen", 16, false],
        ["identification", 16, false],
        ["flags", 3, false],
        ["fragOffset", 13, false],
        ["ttl", 8, false],
        ["protocol", 8, false],
        ["hdrChecksum", 16, false],
        ["srcAddr", 32, false],
        ["dstAddr", 32, false]
      ]
    },
    {
      "name" : "fwd_metadata_t",
      "id" : 3,
      "fields" : [
        ["l2ptr", 32, false],
        ["out_bd", 24, false]
      ]
    },
    {
      "name" : "standard_metadata",
      "id" : 4,
      "fields" : [
        ["ingress_port", 9, false],
        ["egress_spec", 9, false],
        ["egress_port", 9, false],
        ["clone_spec", 32, false],
        ["instance_type", 32, false],
        ["drop", 1, false],
        ["recirculate_port", 16, false],
        ["packet_length", 32, false],
        ["enq_timestamp", 32, false],
        ["enq_qdepth", 19, false],
        ["deq_timedelta", 32, false],
        ["deq_qdepth", 19, false],
        ["ingress_global_timestamp", 48, false],
        ["lf_field_list", 32, false],
        ["mcast_grp", 16, false],
        ["resubmit_flag", 1, false],
        ["egress_rid", 16, false],
        ["_padding", 5, false]
      ]
    }
  ],
  "headers" : [
    {
      "name" : "scalars",
      "id" : 0,
      "header_type" : "scalars_0",
      "metadata" : true,
      "pi_omit" : true
    },
    {
      "name" : "standard_metadata",
      "id" : 1,
      "header_type" : "standard_metadata",
      "metadata" : true,
      "pi_omit" : true
    },
    {
      "name" : "ethernet",
      "id" : 2,
      "header_type" : "ethernet_t",
      "metadata" : false,
      "pi_omit" : true
    },
    {
      "name" : "ipv4",
      "id" : 3,
      "header_type" : "ipv4_t",
      "metadata" : false,
      "pi_omit" : true
    },
    {
      "name" : "fwd_metadata",
      "id" : 4,
      "header_type" : "fwd_metadata_t",
      "metadata" : true,
      "pi_omit" : true
    }
  ],
  "header_stacks" : [],
  "header_union_types" : [],
  "header_unions" : [],
  "header_union_stacks" : [],
  "field_lists" : [],
  "errors" : [
    ["NoError", 1],
    ["PacketTooShort", 2],
    ["NoMatch", 3],
    ["StackOutOfBounds", 4],
    ["HeaderTooShort", 5],
    ["ParserTimeout", 6]
  ],
  "enums" : [],
  "parsers" : [
    {
      "name" : "parser",
      "id" : 0,
      "init_state" : "start",
      "parse_states" : [
        {
          "name" : "start",
          "id" : 0,
          "parser_ops" : [
            {
              "parameters" : [
                {
                  "type" : "regular",
                  "value" : "ethernet"
                }
              ],
              "op" : "extract"
            }
          ],
          "transitions" : [
            {
              "value" : "0x0800",
              "mask" : null,
              "next_state" : "parse_ipv4"
            },
            {
              "value" : "default",
              "mask" : null,
              "next_state" : null
            }
          ],
          "transition_key" : [
            {
              "type" : "field",
              "value" : ["ethernet", "etherType"]
            }
          ]
        },
        {
          "name" : "parse_ipv4",
          "id" : 1,
          "parser_ops" : [
            {
              "parameters" : [
                {
                  "type" : "regular",
                  "value" : "ipv4"
                }
              ],
              "op" : "extract"
            }
          ],
          "transitions" : [
            {
              "value" : "default",
              "mask" : null,
              "next_state" : null
            }
          ],
          "transition_key" : []
        }
      ]
    }
  ],
  "deparsers" : [
    {
      "name" : "deparser",
      "id" : 0,
      "source_info" : {
        "filename" : "p4_programs/demo1b.p4",
        "line" : 196,
        "column" : 8,
        "source_fragment" : "DeparserImpl"
      },
      "order" : ["ethernet", "ipv4"]
    }
  ],
  "meter_arrays" : [],
  "counter_arrays" : [],
  "register_arrays" : [],
  "calculations" : [],
  "learn_lists" : [],
  "actions" : [
    {
      "name" : "my_drop1",
      "id" : 0,
      "runtime_data" : [],
      "primitives" : [
        {
          "op" : "drop",
          "parameters" : [],
          "source_info" : {
            "filename" : "p4_programs/demo1b.p4",
            "line" : 67,
            "column" : 4,
            "source_fragment" : "mark_to_drop()"
          }
        }
      ]
    },
    {
      "name" : "my_drop2",
      "id" : 1,
      "runtime_data" : [],
      "primitives" : [
        {
          "op" : "drop",
          "parameters" : [],
          "source_info" : {
            "filename" : "p4_programs/demo1b.p4",
            "line" : 70,
            "column" : 4,
            "source_fragment" : "mark_to_drop()"
          }
        }
      ]
    },
    {
      "name" : "do_acl_permit",
      "id" : 2,
      "runtime_data" : [],
      "primitives" : [
        {
          "op" : "assign",
          "parameters" : [
            {
              "type" : "field",
              "value" : ["scalars", "acl_drop"]
            },
            {
              "type" : "expression",
              "value" : {
                "type" : "expression",
                "value" : {
                  "op" : "b2d",
                  "left" : null,
                  "right" : {
                    "type" : "bool",
                    "value" : false
                  }
                }
              }
            }
          ],
          "source_info" : {
            "filename" : "p4_programs/demo1b.p4",
            "line" : 106,
            "column" : 8,
            "source_fragment" : "acl_drop = false"
          }
        }
      ]
    },
    {
      "name" : "do_acl_drop",
      "id" : 3,
      "runtime_data" : [],
      "primitives" : [
        {
          "op" : "assign",
          "parameters" : [
            {
              "type" : "field",
              "value" : ["scalars", "acl_drop"]
            },
            {
              "type" : "expression",
              "value" : {
                "type" : "expression",
                "value" : {
                  "op" : "b2d",
                  "left" : null,
                  "right" : {
                    "type" : "bool",
                    "value" : true
                  }
                }
              }
            }
          ],
          "source_info" : {
            "filename" : "p4_programs/demo1b.p4",
            "line" : 109,
            "column" : 8,
            "source_fragment" : "acl_drop = true"
          }
        }
      ]
    },
    {
      "name" : "set_l2ptr",
      "id" : 4,
      "runtime_data" : [
        {
          "name" : "l2ptr",
          "bitwidth" : 32
        }
      ],
      "primitives" : [
        {
          "op" : "assign",
          "parameters" : [
            {
              "type" : "field",
              "value" : ["fwd_metadata", "l2ptr"]
            },
            {
              "type" : "runtime_data",
              "value" : 0
            }
          ],
          "source_info" : {
            "filename" : "p4_programs/demo1b.p4",
            "line" : 126,
            "column" : 8,
            "source_fragment" : "meta.fwd_metadata.l2ptr = l2ptr"
          }
        }
      ]
    },
    {
      "name" : "set_bd_dmac_intf",
      "id" : 5,
      "runtime_data" : [
        {
          "name" : "bd",
          "bitwidth" : 24
        },
        {
          "name" : "dmac",
          "bitwidth" : 48
        },
        {
          "name" : "intf",
          "bitwidth" : 9
        }
      ],
      "primitives" : [
        {
          "op" : "assign",
          "parameters" : [
            {
              "type" : "field",
              "value" : ["fwd_metadata", "out_bd"]
            },
            {
              "type" : "runtime_data",
              "value" : 0
            }
          ],
          "source_info" : {
            "filename" : "p4_programs/demo1b.p4",
            "line" : 140,
            "column" : 8,
            "source_fragment" : "meta.fwd_metadata.out_bd = bd"
          }
        },
        {
          "op" : "assign",
          "parameters" : [
            {
              "type" : "field",
              "value" : ["ethernet", "dstAddr"]
            },
            {
              "type" : "runtime_data",
              "value" : 1
            }
          ],
          "source_info" : {
            "filename" : "p4_programs/demo1b.p4",
            "line" : 141,
            "column" : 8,
            "source_fragment" : "hdr.ethernet.dstAddr = dmac"
          }
        },
        {
          "op" : "assign",
          "parameters" : [
            {
              "type" : "field",
              "value" : ["standard_metadata", "egress_spec"]
            },
            {
              "type" : "runtime_data",
              "value" : 2
            }
          ],
          "source_info" : {
            "filename" : "p4_programs/demo1b.p4",
            "line" : 142,
            "column" : 8,
            "source_fragment" : "standard_metadata.egress_spec = intf"
          }
        },
        {
          "op" : "assign",
          "parameters" : [
            {
              "type" : "field",
              "value" : ["ipv4", "ttl"]
            },
            {
              "type" : "expression",
              "value" : {
                "type" : "expression",
                "value" : {
                  "op" : "&",
                  "left" : {
                    "type" : "expression",
                    "value" : {
                      "op" : "+",
                      "left" : {
                        "type" : "field",
                        "value" : ["ipv4", "ttl"]
                      },
                      "right" : {
                        "type" : "hexstr",
                        "value" : "0xff"
                      }
                    }
                  },
                  "right" : {
                    "type" : "hexstr",
                    "value" : "0xff"
                  }
                }
              }
            }
          ],
          "source_info" : {
            "filename" : "p4_programs/demo1b.p4",
            "line" : 143,
            "column" : 8,
            "source_fragment" : "hdr.ipv4.ttl = hdr.ipv4.ttl - 1"
          }
        }
      ]
    },
    {
      "name" : "act",
      "id" : 6,
      "runtime_data" : [],
      "primitives" : [
        {
          "op" : "drop",
          "parameters" : [],
          "source_info" : {
            "filename" : "p4_programs/demo1b.p4",
            "line" : 161,
            "column" : 16,
            "source_fragment" : "mark_to_drop()"
          }
        }
      ]
    },
    {
      "name" : "act_0",
      "id" : 7,
      "runtime_data" : [],
      "primitives" : [
        {
          "op" : "assign",
          "parameters" : [
            {
              "type" : "field",
              "value" : ["fwd_metadata", "l2ptr"]
            },
            {
              "type" : "hexstr",
              "value" : "0x00000000"
            }
          ],
          "source_info" : {
            "filename" : "p4_programs/demo1b.p4",
            "line" : 157,
            "column" : 36,
            "source_fragment" : "0; ..."
          }
        }
      ]
    },
    {
      "name" : "my_drop3",
      "id" : 8,
      "runtime_data" : [],
      "primitives" : [
        {
          "op" : "drop",
          "parameters" : [],
          "source_info" : {
            "filename" : "p4_programs/demo1b.p4",
            "line" : 73,
            "column" : 4,
            "source_fragment" : "mark_to_drop()"
          }
        }
      ]
    },
    {
      "name" : "rewrite_mac",
      "id" : 9,
      "runtime_data" : [
        {
          "name" : "smac",
          "bitwidth" : 48
        }
      ],
      "primitives" : [
        {
          "op" : "assign",
          "parameters" : [
            {
              "type" : "field",
              "value" : ["ethernet", "srcAddr"]
            },
            {
              "type" : "runtime_data",
              "value" : 0
            }
          ],
          "source_info" : {
            "filename" : "p4_programs/demo1b.p4",
            "line" : 178,
            "column" : 8,
            "source_fragment" : "hdr.ethernet.srcAddr = smac"
          }
        }
      ]
    }
  ],
  "pipelines" : [
    {
      "name" : "ingress",
      "id" : 0,
      "source_info" : {
        "filename" : "p4_programs/demo1b.p4",
        "line" : 99,
        "column" : 8,
        "source_fragment" : "ingress"
      },
      "init_table" : "node_2",
      "tables" : [
        {
          "name" : "ipv4_acl",
          "id" : 0,
          "source_info" : {
            "filename" : "p4_programs/demo1b.p4",
            "line" : 111,
            "column" : 10,
            "source_fragment" : "ipv4_acl"
          },
          "key" : [
            {
              "match_type" : "ternary",
              "target" : ["ipv4", "srcAddr"],
              "mask" : null
            },
            {
              "match_type" : "ternary",
              "target" : ["ipv4", "dstAddr"],
              "mask" : null
            },
            {
              "match_type" : "ternary",
              "target" : ["ipv4", "protocol"],
              "mask" : null
            },
            {
              "match_type" : "range",
              "target" : ["ipv4", "ttl"],
              "mask" : null
            }
          ],
          "match_type" : "range",
          "type" : "simple",
          "max_size" : 1024,
          "with_counters" : false,
          "support_timeout" : false,
          "direct_meters" : null,
          "action_ids" : [2, 3],
          "actions" : ["do_acl_permit", "do_acl_drop"],
          "base_default_next" : "node_4",
          "next_tables" : {
            "do_acl_permit" : "node_4",
            "do_acl_drop" : "node_4"
          },
          "default_entry" : {
            "action_id" : 3,
            "action_const" : false,
            "action_data" : [],
            "action_entry_const" : false
          }
        },
        {
          "name" : "tbl_act",
          "id" : 1,
          "key" : [],
          "match_type" : "exact",
          "type" : "simple",
          "max_size" : 1024,
          "with_counters" : false,
          "support_timeout" : false,
          "direct_meters" : null,
          "action_ids" : [6],
          "actions" : ["act"],
          "base_default_next" : null,
          "next_tables" : {
            "act" : null
          },
          "default_entry" : {
            "action_id" : 6,
            "action_const" : true,
            "action_data" : [],
            "action_entry_const" : true
          }
        },
        {
          "name" : "tbl_act_0",
          "id" : 2,
          "key" : [],
          "match_type" : "exact",
          "type" : "simple",
          "max_size" : 1024,
          "with_counters" : false,
          "support_timeout" : false,
          "direct_meters" : null,
          "action_ids" : [7],
          "actions" : ["act_0"],
          "base_default_next" : "ipv4_da_lpm",
          "next_tables" : {
            "act_0" : "ipv4_da_lpm"
          },
          "default_entry" : {
            "action_id" : 7,
            "action_const" : true,
            "action_data" : [],
            "action_entry_const" : true
          }
        },
        {
          "name" : "ipv4_da_lpm",
          "id" : 3,
          "source_info" : {
            "filename" : "p4_programs/demo1b.p4",
            "line" : 128,
            "column" : 10,
            "source_fragment" : "ipv4_da_lpm"
          },
          "key" : [
            {
              "match_type" : "lpm",
              "target" : ["ipv4", "dstAddr"],
              "mask" : null
            }
          ],
          "match_type" : "lpm",
          "type" : "simple",
          "max_size" : 1024,
          "with_counters" : false,
          "support_timeout" : false,
          "direct_meters" : null,
          "action_ids" : [4, 0],
          "actions" : ["set_l2ptr", "my_drop1"],
          "base_default_next" : "node_8",
          "next_tables" : {
            "set_l2ptr" : "node_8",
            "my_drop1" : "node_8"
          },
          "default_entry" : {
            "action_id" : 0,
            "action_const" : false,
            "action_data" : [],
            "action_entry_const" : false
          }
        },
        {
          "name" : "mac_da",
          "id" : 4,
          "source_info" : {
            "filename" : "p4_programs/demo1b.p4",
            "line" : 145,
            "column" : 10,
            "source_fragment" : "mac_da"
          },
          "key" : [
            {
              "match_type" : "exact",
              "target" : ["fwd_metadata", "l2ptr"],
              "mask" : null
            }
          ],
          "match_type" : "exact",
          "type" : "simple",
          "max_size" : 1024,
          "with_counters" : false,
          "support_timeout" : false,
          "direct_meters" : null,
          "action_ids" : [5, 1],
          "actions" : ["set_bd_dmac_intf", "my_drop2"],
          "base_default_next" : null,
          "next_tables" : {
            "set_bd_dmac_intf" : null,
            "my_drop2" : null
          },
          "default_entry" : {
            "action_id" : 1,
            "action_const" : false,
            "action_data" : [],
            "action_entry_const" : false
          }
        }
      ],
      "action_profiles" : [],
      "conditionals" : [
        {
          "name" : "node_2",
          "id" : 0,
          "source_info" : {
            "filename" : "p4_programs/demo1b.p4",
            "line" : 158,
            "column" : 12,
            "source_fragment" : "hdr.ipv4.isValid()"
          },
          "expression" : {
            "type" : "expression",
            "value" : {
              "op" : "==",
              "left" : {
                "type" : "field",
                "value" : ["ipv4", "$valid$"]
              },
              "right" : {
                "type" : "hexstr",
                "value" : "0x01"
              }
            }
          },
          "false_next" : null,
          "true_next" : "ipv4_acl"
        },
        {
          "name" : "node_4",
          "id" : 1,
          "source_info" : {
            "filename" : "p4_programs/demo1b.p4",
            "line" : 160,
            "column" : 16,
            "source_fragment" : "acl_drop"
          },
          "expression" : {
            "type" : "expression",
            "value" : {
              "op" : "d2b",
              "left" : null,
              "right" : {
                "type" : "field",
                "value" : ["scalars", "acl_drop"]
              }
            }
          },
          "true_next" : "tbl_act",
          "false_next" : "tbl_act_0"
        },
        {
          "name" : "node_8",
          "id" : 2,
          "source_info" : {
            "filename" : "p4_programs/demo1b.p4",
            "line" : 166,
            "column" : 16,
            "source_fragment" : "meta.fwd_metadata.l2ptr != L2PTR_UNSET"
          },
          "expression" : {
            "type" : "expression",
            "value" : {
              "op" : "!=",
              "left" : {
                "type" : "field",
                "value" : ["fwd_metadata", "l2ptr"]
              },
              "right" : {
                "type" : "hexstr",
                "value" : "0x00000000"
              }
            }
          },
          "false_next" : null,
          "true_next" : "mac_da"
        }
      ]
    },
    {
      "name" : "egress",
      "id" : 1,
      "source_info" : {
        "filename" : "p4_programs/demo1b.p4",
        "line" : 173,
        "column" : 8,
        "source_fragment" : "egress"
      },
      "init_table" : "send_frame",
      "tables" : [
        {
          "name" : "send_frame",
          "id" : 5,
          "source_info" : {
            "filename" : "p4_programs/demo1b.p4",
            "line" : 180,
            "column" : 10,
            "source_fragment" : "send_frame"
          },
          "key" : [
            {
              "match_type" : "exact",
              "target" : ["fwd_metadata", "out_bd"],
              "mask" : null
            }
          ],
          "match_type" : "exact",
          "type" : "simple",
          "max_size" : 1024,
          "with_counters" : false,
          "support_timeout" : false,
          "direct_meters" : null,
          "action_ids" : [9, 8],
          "actions" : ["rewrite_mac", "my_drop3"],
          "base_default_next" : null,
          "next_tables" : {
            "rewrite_mac" : null,
            "my_drop3" : null
          },
          "default_entry" : {
            "action_id" : 8,
            "action_const" : false,
            "action_data" : [],
            "action_entry_const" : false
          }
        }
      ],
      "action_profiles" : [],
      "conditionals" : []
    }
  ],
  "checksums" : [],
  "force_arith" : [],
  "extern_instances" : [],
  "field_aliases" : [
    [
      "queueing_metadata.enq_timestamp",
      ["standard_metadata", "enq_timestamp"]
    ],
    [
      "queueing_metadata.enq_qdepth",
      ["standard_metadata", "enq_qdepth"]
    ],
    [
      "queueing_metadata.deq_timedelta",
      ["standard_metadata", "deq_timedelta"]
    ],
    [
      "queueing_metadata.deq_qdepth",
      ["standard_metadata", "deq_qdepth"]
    ],
    [
      "intrinsic_metadata.ingress_global_timestamp",
      ["standard_metadata", "ingress_global_timestamp"]
    ],
    [
      "intrinsic_metadata.lf_field_list",
      ["standard_metadata", "lf_field_list"]
    ],
    [
      "intrinsic_metadata.mcast_grp",
      ["standard_metadata", "mcast_grp"]
    ],
    [
      "intrinsic_metadata.resubmit_flag",
      ["standard_metadata", "resubmit_flag"]
    ],
    [
      "intrinsic_metadata.egress_rid",
      ["standard_metadata", "egress_rid"]
    ]
  ]
}